Mini Project #02 – STA 9750 2024 Submission Material
…
consistent_success_by_genre <- success_by_genre_and_decade |>
    group_by(genres) |>
    summarize(total_success_across_decades = sum(total_success), .groups = 'drop') |>
    arrange(desc(total_success_across_decades))

# Display the genre with the most consistent success across decades
print("Genres with the most consistent success:")

[1] "Genres with the most consistent success:"

Show the code

print(consistent_success_by_genre)

# A tibble: 28 × 2
   genres      total_success_across_decades
   <chr>                              <dbl>
 1 Drama                           6871881.
 2 Comedy                          4555220.
 3 Action                          3013571.
 4 Crime                           2392795.
 5 Adventure                       2325633.
 6 Animation                       1947911.
 7 Romance                         1521332.
 8 Mystery                         1333734.
 9 Documentary                     1057609.
10 Thriller                        1030134.
# ℹ 18 more rows
…
