mp04 – STA 9750 2024 Submission Material
…
# Combine All Data into a Single Data Frame
combined_data <- wage_growth %>%
  dplyr::rename(wage_growth = value) %>%
  dplyr::left_join(inflation %>% dplyr::rename(inflation = value), by = "date") %>%
  dplyr::left_join(us_equity_align %>% dplyr::rename(us_equity = value), by = "date") %>%
  dplyr::left_join(intl_equity_align %>% dplyr::rename(intl_equity = value), by = "date") %>%
  dplyr::left_join(bond_market %>% dplyr::rename(bond_market = value), by = "date") %>%
  dplyr::left_join(short_term_debt %>% dplyr::rename(short_term_debt = value), by = "date")

file_path <- file.path(data_directory, "monte_carlo_inputs.csv")
write.csv(combined_data, file_path, row.names = FALSE)

print(combined_data)

# A tibble: 191 × 7
   date       wage_growth inflation us_equity intl_equity bond_market
   <date>           <dbl>     <dbl>     <dbl>       <dbl>       <dbl>
 1 2008-12-01        21.9      211.      211.        211.        2.25
 2 2009-01-01        22.0      212.      212.        212.        2.52
 3 2009-02-01        22.0      213.      213.        213.        2.87
 4 2009-03-01        22.1      212.      212.        212.        2.82
 5 2009-04-01        22.1      213.      213.        213.        2.93
 6 2009-05-01        22.1      213.      213.        213.        3.29
 7 2009-06-01        22.1      215.      215.        215.        3.72
 8 2009-07-01        22.2      215.      215.        215.        3.56
 9 2009-08-01        22.2      215.      215.        215.        3.59
10 2009-09-01        22.3      216.      216.        216.        3.40
# ℹ 181 more rows
# ℹ 1 more variable: short_term_debt <dbl>
…
